Parte 4/part4/part4/simulation/qsim/part4.msim.vcd
$comment
	File created using the following command:
		vcd file part4.msim.vcd -direction
$end
$date
	Thu Aug 22 15:50:51 2024
$end
$version
	ModelSim Version 10.5b
$end
$timescale
	1ps
$end

$scope module part4_vhd_vec_tst $end
$var wire 1 ! CLK $end
$var wire 1 " D $end
$var wire 1 # Qa $end
$var wire 1 $ Qb $end
$var wire 1 % Qc $end

$scope module i1 $end
$var wire 1 & gnd $end
$var wire 1 ' vcc $end
$var wire 1 ( unknown $end
$var wire 1 ) devoe $end
$var wire 1 * devclrn $end
$var wire 1 + devpor $end
$var wire 1 , ww_devoe $end
$var wire 1 - ww_devclrn $end
$var wire 1 . ww_devpor $end
$var wire 1 / ww_Qa $end
$var wire 1 0 ww_D $end
$var wire 1 1 ww_CLK $end
$var wire 1 2 ww_Qb $end
$var wire 1 3 ww_Qc $end
$var wire 1 4 \CLK~inputclkctrl_INCLK_bus\ [3] $end
$var wire 1 5 \CLK~inputclkctrl_INCLK_bus\ [2] $end
$var wire 1 6 \CLK~inputclkctrl_INCLK_bus\ [1] $end
$var wire 1 7 \CLK~inputclkctrl_INCLK_bus\ [0] $end
$var wire 1 8 \Qa~output_o\ $end
$var wire 1 9 \Qb~output_o\ $end
$var wire 1 : \Qc~output_o\ $end
$var wire 1 ; \D~input_o\ $end
$var wire 1 < \CLK~input_o\ $end
$var wire 1 = \CLK~inputclkctrl_outclk\ $end
$var wire 1 > \inst|Q~combout\ $end
$var wire 1 ? \inst1|inst1|Q~combout\ $end
$var wire 1 @ \inst1|inst|Q~combout\ $end
$var wire 1 A \inst2|inst|Q~combout\ $end
$upscope $end
$upscope $end
$enddefinitions $end
#0
$dumpvars
0!
0"
x#
x$
x%
0&
1'
x(
1)
1*
1+
1,
1-
1.
x/
00
01
x2
x3
x8
x9
x:
0;
0<
0=
x>
0?
x@
xA
14
15
16
07
$end
#20000
1"
10
1;
1?
#25000
1!
11
1<
17
1=
1>
1@
19
18
12
1/
1$
1#
#30000
0"
00
0;
0>
08
0/
0#
#40000
1"
10
1;
1>
18
1/
1#
#50000
0!
01
0<
07
0=
1A
1:
13
1%
#60000
0"
00
0;
0?
#75000
1!
11
1<
17
1=
0>
0@
09
08
02
0/
0$
0#
#80000
1"
10
1;
1>
18
1/
1#
#90000
0"
00
0;
0>
08
0/
0#
#100000
0!
01
0<
07
0=
0A
0:
03
0%
#110000
1"
10
1;
1?
#120000
0"
00
0;
0?
#125000
1!
11
1<
17
1=
#150000
0!
01
0<
07
0=
#175000
1!
11
1<
17
1=
#200000
0!
01
0<
07
0=
#225000
1!
11
1<
17
1=
#250000
0!
01
0<
07
0=
#275000
1!
11
1<
17
1=
#300000
0!
01
0<
07
0=
#325000
1!
11
1<
17
1=
#350000
0!
01
0<
07
0=
#375000
1!
11
1<
17
1=
#400000
0!
01
0<
07
0=
#425000
1!
11
1<
17
1=
#450000
0!
01
0<
07
0=
#475000
1!
11
1<
17
1=
#500000
0!
01
0<
07
0=
#525000
1!
11
1<
17
1=
#550000
0!
01
0<
07
0=
#575000
1!
11
1<
17
1=
#600000
0!
01
0<
07
0=
#625000
1!
11
1<
17
1=
#650000
0!
01
0<
07
0=
#675000
1!
11
1<
17
1=
#700000
0!
01
0<
07
0=
#725000
1!
11
1<
17
1=
#750000
0!
01
0<
07
0=
#775000
1!
11
1<
17
1=
#800000
0!
01
0<
07
0=
#825000
1!
11
1<
17
1=
#850000
0!
01
0<
07
0=
#875000
1!
11
1<
17
1=
#900000
0!
01
0<
07
0=
#925000
1!
11
1<
17
1=
#950000
0!
01
0<
07
0=
#975000
1!
11
1<
17
1=
