Parte 1/part1/simulation/qsim/part1.msim.vcd
$comment
	File created using the following command:
		vcd file part1.msim.vcd -direction
$end
$date
	Tue Aug 20 15:20:45 2024
$end
$version
	ModelSim Version 10.5b
$end
$timescale
	1ps
$end

$scope module part1_vhd_vec_tst $end
$var wire 1 ! Clk $end
$var wire 1 " Q $end
$var wire 1 # R $end
$var wire 1 $ S $end

$scope module i1 $end
$var wire 1 % gnd $end
$var wire 1 & vcc $end
$var wire 1 ' unknown $end
$var wire 1 ( devoe $end
$var wire 1 ) devclrn $end
$var wire 1 * devpor $end
$var wire 1 + ww_devoe $end
$var wire 1 , ww_devclrn $end
$var wire 1 - ww_devpor $end
$var wire 1 . ww_Clk $end
$var wire 1 / ww_R $end
$var wire 1 0 ww_S $end
$var wire 1 1 ww_Q $end
$var wire 1 2 \Q~output_o\ $end
$var wire 1 3 \Clk~input_o\ $end
$var wire 1 4 \R~input_o\ $end
$var wire 1 5 \R_g~combout\ $end
$var wire 1 6 \S~input_o\ $end
$var wire 1 7 \S_g~combout\ $end
$var wire 1 8 \Qb~combout\ $end
$var wire 1 9 \Qa~combout\ $end
$upscope $end
$upscope $end
$enddefinitions $end
#0
$dumpvars
1!
0"
1#
0$
0%
1&
x'
1(
1)
1*
1+
1,
1-
1.
1/
00
01
02
13
14
15
06
07
18
09
$end
#5000
0!
0.
03
05
#10000
1!
0#
1.
0/
04
13
#15000
0!
0.
03
#20000
1!
1.
13
#25000
0!
0.
03
#30000
1!
1$
1.
10
16
13
17
08
19
12
11
1"
#35000
0!
0.
03
07
#40000
1!
1.
13
17
#45000
0!
0.
03
07
#50000
1!
0$
1#
1.
00
1/
14
06
13
15
09
18
02
01
0"
#55000
0!
0.
03
05
#60000
1!
1.
13
15
#65000
0!
0.
03
05
#70000
1!
1.
13
15
#75000
0!
0.
03
05
#80000
1!
1.
13
15
#85000
0!
0.
03
05
#90000
1!
1.
13
15
#95000
0!
0.
03
05
#100000
1!
1.
13
15
#105000
0!
0.
03
05
#110000
1!
1.
13
15
#115000
0!
0.
03
05
#120000
1!
1.
13
15
#125000
0!
0.
03
05
#130000
1!
1.
13
15
#135000
0!
0.
03
05
#140000
1!
1.
13
15
#145000
0!
0.
03
05
#150000
1!
1.
13
15
#155000
0!
0.
03
05
#160000
1!
1.
13
15
#165000
0!
0.
03
05
#170000
1!
1.
13
15
#175000
0!
0.
03
05
#180000
1!
1.
13
15
#185000
0!
0.
03
05
#190000
1!
1.
13
15
#195000
0!
0.
03
05
#200000
1!
1.
13
15
#205000
0!
0.
03
05
#210000
1!
1.
13
15
#215000
0!
0.
03
05
#220000
1!
1.
13
15
#225000
0!
0.
03
05
#230000
1!
1.
13
15
#235000
0!
0.
03
05
#240000
1!
1.
13
15
#245000
0!
0.
03
05
#250000
1!
1.
13
15
#255000
0!
0.
03
05
#260000
1!
1.
13
15
#265000
0!
0.
03
05
#270000
1!
1.
13
15
#275000
0!
0.
03
05
#280000
1!
1.
13
15
#285000
0!
0.
03
05
#290000
1!
1.
13
15
#295000
0!
0.
03
05
#300000
1!
1.
13
15
#305000
0!
0.
03
05
#310000
1!
1.
13
15
#315000
0!
0.
03
05
#320000
1!
1.
13
15
#325000
0!
0.
03
05
#330000
1!
1.
13
15
#335000
0!
0.
03
05
#340000
1!
1.
13
15
#345000
0!
0.
03
05
#350000
1!
1.
13
15
#355000
0!
0.
03
05
#360000
1!
1.
13
15
#365000
0!
0.
03
05
#370000
1!
1.
13
15
#375000
0!
0.
03
05
#380000
1!
1.
13
15
#385000
0!
0.
03
05
#390000
1!
1.
13
15
#395000
0!
0.
03
05
#400000
1!
1.
13
15
#405000
0!
0.
03
05
#410000
1!
1.
13
15
#415000
0!
0.
03
05
#420000
1!
1.
13
15
#425000
0!
0.
03
05
#430000
1!
1.
13
15
#435000
0!
0.
03
05
#440000
1!
1.
13
15
#445000
0!
0.
03
05
#450000
1!
1.
13
15
#455000
0!
0.
03
05
#460000
1!
1.
13
15
#465000
0!
0.
03
05
#470000
1!
1.
13
15
#475000
0!
0.
03
05
#480000
1!
1.
13
15
#485000
0!
0.
03
05
#490000
1!
1.
13
15
#495000
0!
0.
03
05
#500000
1!
1.
13
15
#505000
0!
0.
03
05
#510000
1!
1.
13
15
#515000
0!
0.
03
05
#520000
1!
1.
13
15
#525000
0!
0.
03
05
#530000
1!
1.
13
15
#535000
0!
0.
03
05
#540000
1!
1.
13
15
#545000
0!
0.
03
05
#550000
1!
1.
13
15
#555000
0!
0.
03
05
#560000
1!
1.
13
15
#565000
0!
0.
03
05
#570000
1!
1.
13
15
#575000
0!
0.
03
05
#580000
1!
1.
13
15
#585000
0!
0.
03
05
#590000
1!
1.
13
15
#595000
0!
0.
03
05
#600000
1!
1.
13
15
#605000
0!
0.
03
05
#610000
1!
1.
13
15
#615000
0!
0.
03
05
#620000
1!
1.
13
15
#625000
0!
0.
03
05
#630000
1!
1.
13
15
#635000
0!
0.
03
05
#640000
1!
1.
13
15
#645000
0!
0.
03
05
#650000
1!
1.
13
15
#655000
0!
0.
03
05
#660000
1!
1.
13
15
#665000
0!
0.
03
05
#670000
1!
1.
13
15
#675000
0!
0.
03
05
#680000
1!
1.
13
15
#685000
0!
0.
03
05
#690000
1!
1.
13
15
#695000
0!
0.
03
05
#700000
1!
1.
13
15
#705000
0!
0.
03
05
#710000
1!
1.
13
15
#715000
0!
0.
03
05
#720000
1!
1.
13
15
#725000
0!
0.
03
05
#730000
1!
1.
13
15
#735000
0!
0.
03
05
#740000
1!
1.
13
15
#745000
0!
0.
03
05
#750000
1!
1.
13
15
#755000
0!
0.
03
05
#760000
1!
1.
13
15
#765000
0!
0.
03
05
#770000
1!
1.
13
15
#775000
0!
0.
03
05
#780000
1!
1.
13
15
#785000
0!
0.
03
05
#790000
1!
1.
13
15
#795000
0!
0.
03
05
#800000
1!
1.
13
15
#805000
0!
0.
03
05
#810000
1!
1.
13
15
#815000
0!
0.
03
05
#820000
1!
1.
13
15
#825000
0!
0.
03
05
#830000
1!
1.
13
15
#835000
0!
0.
03
05
#840000
1!
1.
13
15
#845000
0!
0.
03
05
#850000
1!
1.
13
15
#855000
0!
0.
03
05
#860000
1!
1.
13
15
#865000
0!
0.
03
05
#870000
1!
1.
13
15
#875000
0!
0.
03
05
#880000
1!
1.
13
15
#885000
0!
0.
03
05
#890000
1!
1.
13
15
#895000
0!
0.
03
05
#900000
1!
1.
13
15
#905000
0!
0.
03
05
#910000
1!
1.
13
15
#915000
0!
0.
03
05
#920000
1!
1.
13
15
#925000
0!
0.
03
05
#930000
1!
1.
13
15
#935000
0!
0.
03
05
#940000
1!
1.
13
15
#945000
0!
0.
03
05
#950000
1!
1.
13
15
#955000
0!
0.
03
05
#960000
1!
1.
13
15
#965000
0!
0.
03
05
#970000
1!
1.
13
15
#975000
0!
0.
03
05
#980000
1!
1.
13
15
#985000
0!
0.
03
05
#990000
1!
1.
13
15
#995000
0!
0.
03
05
